Lista de coches
===================

Por orden alfabético

# Coche, nombre del conductor, asientos totales y pasajeros

Citroen DS (Daniel Pollithy, 5)
-------------------------------
- Gomez Galbarro, Rafael
- Reina MArtin, Ricardo
- Solis Franco, Francisco Javier

SEAT Leon ( Alejandro Gonzalez,5)
----------------
- Piloto

